…
### Getting End Game Data

``` r
end_games = full_pbp |>
  filter(text == "End of Game") |>
  select(game_id, date = game_date, away_team = away_team_abbrev,
         away_score, home_score, home_team = home_team_abbrev) |>
  mutate(win_team = ifelse(home_score > away_score, home_team, away_team),
         lose_team = ifelse(home_score > away_score, away_team, home_team))

end_games
```

    ## # A tibble: 1,173 × 8
    ##      game_id date       away_team away_score home_score home_t…¹ win_t…² lose_…³
    ##        <dbl> <date>     <chr>          <dbl>      <dbl> <chr>    <chr>   <chr>  
    ##  1 401469330 2023-04-02 GS               110        112 DEN      DEN     GS     
    ##  2 401469328 2023-04-02 IND              105        115 CLE      CLE     IND    
    ##  3 401469329 2023-04-02 PHI              104        117 MIL      MIL     PHI    
    ##  4 401469326 2023-04-02 LAL              134        109 HOU      LAL     HOU    
    ##  5 401469327 2023-04-02 PHX              128        118 OKC      PHX     OKC    
    ##  6 401469322 2023-04-02 DAL              130        132 ATL      ATL     DAL    
    ##  7 401469323 2023-04-02 WSH              109        118 NY       NY      WSH    
    ##  8 401469324 2023-04-02 DET              102        128 ORL      ORL     DET    
    ##  9 401469325 2023-04-02 SA               142        134 SAC      SA      SAC    
    ## 10 401469319 2023-04-02 UTAH             110        111 BKN      BKN     UTAH   
    ## # … with 1,163 more rows, and abbreviated variable names ¹​home_team, ²​win_team,
    ## #   ³​lose_team
…
``` r
team_records = end_games |>
  count(win_team) |>
  rename(team = win_team, wins = n) |>
  left_join(end_games |>
  count(lose_team) |>
  rename(team = lose_team, losses = n), by = "team") |>
  mutate(pct = round(wins / (wins + losses), 3),
         record = paste0(wins, "-", losses))

team_records |>
  arrange(desc(pct))
```

    ## # A tibble: 30 × 5
    ##    team   wins losses   pct record
    ##    <chr> <int>  <int> <dbl> <chr> 
    ##  1 MIL      56     22 0.718 56-22 
    ##  2 BOS      54     24 0.692 54-24 
    ##  3 DEN      52     26 0.667 52-26 
    ##  4 PHI      51     27 0.654 51-27 
    ##  5 MEM      49     29 0.628 49-29 
    ##  6 CLE      48     30 0.615 48-30 
    ##  7 SAC      47     31 0.603 47-31 
    ##  8 NY       46     33 0.582 46-33 
    ##  9 BKN      43     35 0.551 43-35 
    ## 10 PHX      43     35 0.551 43-35 
    ## # … with 20 more rows
…
reframed_end_games
```

    ## # A tibble: 2,346 × 7
    ##      game_id date       team  opponent team_score opp_score home_away
    ##        <dbl> <date>     <chr> <chr>         <dbl>     <dbl> <chr>    
    ##  1 401468016 2022-10-18 BOS   PHI             126       117 home     
    ##  2 401468017 2022-10-18 GS    LAL             123       109 home     
    ##  3 401468018 2022-10-19 DET   ORL             113       109 home     
    ##  4 401468019 2022-10-19 IND   WSH             107       114 home     
    ##  5 401468020 2022-10-19 ATL   HOU             117       107 home     
    ##  6 401468021 2022-10-19 BKN   NO              108       130 home     
    ##  7 401468022 2022-10-19 MIA   CHI             108       116 home     
    ##  8 401468023 2022-10-19 TOR   CLE             108       105 home     
    ##  9 401468024 2022-10-19 MEM   NY              115       112 home     
    ## 10 401468025 2022-10-19 MIN   OKC             115       108 home     
    ## # … with 2,336 more rows

### xxx - third qtr leads

``` r
end_games |>
  select(game_id, win_team, lose_team) |>
  inner_join(full_pbp |>
  filter(text == "End of the 3rd Quarter") |>
  transmute(game_id, win_3q = case_when(home_score > away_score ~ home_team_abbrev,
                                        home_score < away_score ~ away_team_abbrev,
                                        home_score == away_score ~ "Tied")), by = "game_id")
```

    ## # A tibble: 1,173 × 4
    ##      game_id win_team lose_team win_3q
    ##        <dbl> <chr>    <chr>     <chr> 
    ##  1 401469330 DEN      GS        DEN   
    ##  2 401469328 CLE      IND       IND   
    ##  3 401469329 MIL      PHI       MIL   
    ##  4 401469326 LAL      HOU       LAL   
    ##  5 401469327 PHX      OKC       PHX   
    ##  6 401469322 ATL      DAL       ATL   
    ##  7 401469323 NY       WSH       NY    
    ##  8 401469324 ORL      DET       ORL   
    ##  9 401469325 SA       SAC       SA    
    ## 10 401469319 BKN      UTAH      BKN   
    ## # … with 1,163 more rows
…
``` r
wend_records |>
  transmute(team, weekday_pct, weekend_pct, diff = weekday_pct - weekend_pct, abs_diff = abs(diff)) |>
  arrange(desc(abs_diff))
```

    ## # A tibble: 30 × 5
    ##    team  weekday_pct weekend_pct   diff abs_diff
    ##    <chr>       <dbl>       <dbl>  <dbl>    <dbl>
    ##  1 BKN         0.405       0.722 -0.317    0.317
    ##  2 WSH         0.579       0.3    0.279    0.279
    ##  3 LAL         0.41        0.615 -0.205    0.205
    ##  4 LAC         0.6         0.412  0.188    0.188
    ##  5 MIL         0.795       0.618  0.177    0.177
    ##  6 DET         0.279       0.114  0.165    0.165
    ##  7 OKC         0.409       0.571 -0.162    0.162
    ##  8 UTAH        0.537       0.378  0.159    0.159
    ##  9 GS          0.452       0.595 -0.143    0.143
    ## 10 ATL         0.439       0.568 -0.129    0.129
    ## # … with 20 more rows
